{
  "add_playlists":[
    {
      "id":"4",
      "user_id":"1",
      "song_ids":[
        "1",
        "2"
      ]
    },
    {
      "id":"5",
      "user_id":"2",
      "song_ids":[
        "3",
        "4"
      ]
    }
  ],
  "remove_playlists":[
    "3"
  ],
  "add_songs_to_playlists":[
    {
      "playlist_id":"1",
      "song_ids":[
        "1",
        "2"
      ]
    },
    {
      "playlist_id":"2",
      "song_ids":[
        "3",
        "4"
      ]
    }
  ]
}
